-------------------------------------------------------------------------------
Test set: TestSuite
-------------------------------------------------------------------------------
Tests run: 13, Failures: 2, Errors: 0, Skipped: 0, Time elapsed: 37.61 s <<< FAILURE! - in TestSuite
genderChange(com.example.PageObject.ProfilePageTest)  Time elapsed: 0.012 s  <<< FAILURE!
java.lang.NullPointerException: Cannot invoke "org.openqa.selenium.support.ui.Select.deselectByVisibleText(String)" because "this.gender" is null
	at com.example.PageObject.ProfilePageTest.genderChange(ProfilePageTest.java:40)

startingDayChange(com.example.PageObject.ProfilePageTest)  Time elapsed: 1.081 s  <<< FAILURE!
java.lang.AssertionError: expected [2020-12-04] but found [2011-11-04]
	at com.example.PageObject.ProfilePageTest.startingDayChange(ProfilePageTest.java:67)

