Pages\MainPage.class
com\example\PageObject\RegistrationPageTest.class
Pages\PageObject.class
com\example\PageObject\ProfilePageTest.class
Utils\DataGenerator.class
Pages\RegistrationPage.class
Pages\LoginPage.class
com\example\PageObject\FunctionalTest.class
com\example\PageObject\LoginPageTest.class
Pages\ProfilePage.class
